blog/capturing-gb-lcd/6coins-title.vcd
$date
  Sun Jul  5 18:30:56 2020
$end
$version
   Sump dumper
$end
$timescale 1ns $end
$var wire 2 ! data $end
$var wire 1 " clk $end
$var wire 1 # hsync $end
$var wire 1 $ vsync $end
$var wire 1 % cpl $end
$var wire 1 & c $end
$enddefinitions $end
$dumpvars
b00 !
0"
0#
0$
0%
0&
$end
#0
b01 !
1$
1&
#300
0&
#6000
1&
#7000
0&
#17700
b11 !
#17800
1#
#19100
b00 !
#19200
1"
#19300
0"
#19400
b01 !
#21000
b00 !
#21300
b01 !
1"
0#
#21400
0"
#21500
1"
#21600
0"
#21700
1"
#21900
0"
#22000
1"
#22100
0"
#22200
1"
#22300
0"
#22400
1"
#22600
0"
#22700
1"
#22800
0"
#22900
1"
#23000
0"
#23200
1"
#23300
0"
#23400
1"
#23500
0"
#23600
1"
#23800
0"
#23900
1"
#24000
0"
#24100
1"
#24200
0"
#24400
1"
#24500
0"
#24600
b00 !
1"
#24700
0"
#24800
1"
#25000
0"
#25100
b01 !
1"
#25200
0"
#25300
1"
#25400
0"
#25500
1"
#25700
0"
#25800
1"
#25900
0"
#26000
1"
#26100
0"
#26300
1"
#26400
0"
#26500
1"
#26600
0"
#26700
1"
#26900
0"
#27000
1"
#27100
0"
#27200
1"
#27300
0"
#27500
1"
#27600
0"
#27700
1"
#27800
0"
#27900
1"
#28100
0"
#28200
1"
#28300
0"
#28400
b00 !
1"
#28500
0"
#28600
1"
#28800
0"
#28900
b01 !
1"
#29000
0"
#29100
1"
#29200
0"
#29400
1"
#29500
0"
#29600
1"
#29700
0"
#29800
1"
#30000
0"
#30100
1"
#30200
0"
#30300
1"
#30400
0"
#30600
1"
#30700
0"
#30800
1"
#30900
0"
#31000
1"
#31200
0"
#31300
1"
#31400
0"
#31500
1"
#31600
0"
#31700
1"
#31900
0"
#32000
1"
#32100
0"
#32200
b00 !
1"
#32300
0"
#32500
1"
#32600
0"
#32700
b01 !
1"
#32800
0"
#32900
1"
#33100
0"
#33200
1"
#33300
0"
#33400
1"
#33500
0"
#33700
1"
#33800
0"
#33900
1"
#34000
0"
#34100
1"
#34300
0"
#34400
1"
#34500
0"
#34600
1"
#34700
0"
#34800
1"
#35000
0"
#35100
1"
#35200
0"
#35300
1"
#35400
0"
#35600
1"
#35700
0"
#35800
1"
#35900
0"
#36000
1"
#36100
b00 !
#36200
0"
#36300
1"
#36400
0"
#36500
b01 !
1"
#36600
0"
#36800
1"
#36900
0"
#37000
1"
#37100
0"
#37200
1"
#37400
0"
#37500
1"
#37600
0"
#37700
1"
#37800
0"
#37900
1"
#38100
0"
#38200
1"
#38300
0"
#38400
1"
#38500
0"
#38700
1"
#38800
0"
#38900
1"
#39000
0"
#39100
1"
#39300
0"
#39400
1"
#39500
0"
#39600
1"
#39700
0"
#39900
b00 !
1"
#40000
0"
#40100
1"
#40200
0"
#40300
b01 !
1"
#40500
0"
#40600
1"
#40700
0"
#40800
1"
#40900
0"
#41000
1"
#41200
0"
#41300
1"
#41400
0"
#41500
1"
#41600
0"
#41800
1"
#41900
0"
#42000
1"
#42100
0"
#42200
1"
1&
#42400
0"
#42500
1"
#42600
0"
#42700
1"
#42800
0"
#43000
1"
#43100
0"
#43200
1"
0&
#43300
0"
#43400
1"
#43600
0"
#43700
b00 !
1"
#43800
0"
#43900
1"
#44000
0"
#44100
1"
#44200
b01 !
#44300
0"
#44400
1"
#44500
0"
#44600
1"
#44700
0"
#44900
1"
#45000
0"
#45100
1"
#45200
0"
#45300
1"
#45500
0"
#45600
1"
#45700
0"
#45800
1"
#45900
0"
#46100
1"
#46200
0"
#46300
1"
#46400
0"
#46500
1"
#46700
0"
#46800
1"
#46900
0"
#47000
1"
#47100
0"
#47200
1"
#47400
0"
#47500
b00 !
1"
#47600
0"
#47700
1"
#47800
0"
#48000
b01 !
1"
#48100
0"
#48200
1"
#48300
0"
#48400
1"
#48600
0"
#48700
1"
#48800
0"
#48900
1"
#49000
0"
#49200
1"
#49300
0"
#49400
1"
#49500
0"
#49600
1"
#49800
0"
#49900
1"
#50000
0"
#50100
1"
#50200
0"
#50300
1"
#50500
0"
#50600
1"
#50700
0"
#50800
1"
#50900
0"
#51100
1"
#51200
0"
#51300
b00 !
1"
#51400
0"
#51500
1"
#51700
0"
#51800
b01 !
1"
#51900
0"
#52000
1"
#52100
0"
#52300
1"
#52400
0"
#52500
1"
#52600
0"
#52700
1"
#52900
0"
#53000
1"
#53100
0"
#53200
1"
#53300
0"
#53400
1"
#53600
0"
#53700
1"
#53800
0"
#53900
1"
#54000
0"
#54200
1"
#54300
0"
#54400
1"
#54500
0"
#54600
1"
#54800
0"
#54900
1"
#55000
0"
#55100
b00 !
1"
#55200
0"
#55400
1"
#55500
0"
#55600
b01 !
1"
#55700
0"
#55800
1"
#56000
0"
#56100
1"
#56200
0"
#56300
1"
#56400
0"
#56500
1"
#56700
0"
#56800
1"
#56900
0"
#57000
1"
#57100
0"
#57300
1"
#57400
0"
#57500
1"
#57600
0"
#57700
1"
#57900
0"
#58000
1"
#58100
0"
#58200
1"
#58300
0"
#58500
1"
#58600
0"
#58700
1"
#58800
0"
#58900
b00 !
1"
#59000
0"
#78500
1&
#79400
0&
#107100
1%
1&
#108100
0%
#108500
0$
#109000
0&
#114700
1&
#115700
0&
#126400
b11 !
#126500
1#
#127800
b01 !
#128000
1"
#128100
b00 !
0"
#129800
b01 !
#130000
b00 !
1"
0#
#130100
0"
#130200
1"
#130300
0"
#130500
1"
#130600
0"
#130700
1"
#130800
0"
#130900
1"
#131100
0"
#131200
1"
#131300
0"
#131400
1"
#131500
0"
#131700
1"
#131800
0"
#131900
1"
#132000
0"
#132100
b01 !
1"
#132200
0"
#132400
b00 !
1"
#132500
0"
#132600
1"
#132700
0"
#132800
1"
#133000
0"
#133100
1"
#133200
0"
#133300
b01 !
1"
#133400
0"
#133600
1"
#133700
0"
#133800
b00 !
1"
#133900
0"
#134000
1"
#134200
0"
#134300
1"
#134400
0"
#134500
1"
#134600
0"
#134800
1"
#134900
0"
#135000
1"
#135100
0"
#135200
1"
#135300
0"
#135500
1"
#135600
0"
#135700
1"
#135800
0"
#135900
b01 !
1"
#136100
0"
#136200
b00 !
1"
#136300
0"
#136400
1"
#136500
0"
#136700
1"
#136800
0"
#136900
1"
#137000
0"
#137100
b01 !
1"
#137300
0"
#137400
1"
#137500
0"
#137600
b00 !
1"
#137700
0"
#137900
1"
#138000
0"
#138100
1"
#138200
0"
#138300
1"
#138400
0"
#138600
1"
#138700
0"
#138800
1"
#138900
0"
#139000
1"
#139200
0"
#139300
1"
#139400
0"
#139500
1"
#139600
0"
#139800
b01 !
1"
#139900
0"
#140000
b00 !
1"
#140100
0"
#140200
1"
#140400
0"
#140500
1"
#140600
0"
#140700
1"
#140800
0"
#140900
1"
#141000
b01 !
#141100
0"
#141200
1"
#141300
0"
#141400
b00 !
1"
#141500
0"
#141700
1"
#141800
0"
#141900
1"
#142000
0"
#142100
1"
#142300
0"
#142400
1"
#142500
0"
#142600
1"
#142700
0"
#142900
1"
#143000
0"
#143100
1"
#143200
0"
#143300
1"
#143500
0"
#143600
b01 !
1"
#143700
0"
#143800
b00 !
1"
#143900
0"
#144000
1"
#144200
0"
#144300
1"
#144400
0"
#144500
1"
#144600
0"
#144800
b01 !
1"
#144900
0"
#145000
1"
#145100
0"
#145200
1"
#145300
b00 !
#145400
0"
#145500
1"
#145600
0"
#145700
1"
#145800
0"
#146000
1"
#146100
0"
#146200
1"
#146300
0"
#146400
1"
#146600
0"
#146700
1"
#146800
0"
#146900
1"
#147000
0"
#147100
1"
#147300
0"
#147400
b01 !
1"
#147500
0"
#147600
b00 !
1"
#147700
0"
#147900
1"
#148000
0"
#148100
1"
#148200
0"
#148300
1"
#148500
0"
#148600
b01 !
1"
#148700
0"
#148800
1"
#148900
0"
#149100
b00 !
1"
#149200
0"
#149300
1"
#149400
0"
#149500
1"
#149700
0"
#149800
1"
#149900
0"
#150000
1"
#150100
0"
#150200
1"
#150400
0"
#150500
1"
#150600
0"
#150700
1"
#150800
0"
#151000
1"
1&
#151100
0"
#151200
b01 !
1"
#151300
0"
#151400
1"
#151500
b00 !
#151600
0"
#151700
1"
#151800
0"
#151900
1"
0&
#152000
0"
#152200
1"
#152300
0"
#152400
b01 !
1"
#152500
0"
#152600
1"
#152800
0"
#152900
b00 !
1"
#153000
0"
#153100
1"
#153200
0"
#153300
1"
#153500
0"
#153600
1"
#153700
0"
#153800
1"
#153900
0"
#154100
1"
#154200
0"
#154300
1"
#154400
0"
#154500
1"
#154700
0"
#154800
1"
#154900
0"
#155000
b01 !
1"
#155100
0"
#155300
b00 !
1"
#155400
0"
#155500
1"
#155600
0"
#155700
1"
#155900
0"
#156000
1"
#156100
0"
#156200
b01 !
1"
#156300
0"
#156400
1"
#156600
0"
#156700
b00 !
1"
#156800
0"
#156900
1"
#157000
0"
#157200
1"
#157300
0"
#157400
1"
#157500
0"
#157600
1"
#157800
0"
#157900
1"
#158000
0"
#158100
1"
#158200
0"
#158400
1"
#158500
0"
#158600
1"
#158700
0"
#158800
b01 !
1"
#159000
0"
#159100
b00 !
1"
#159200
0"
#159300
1"
#159400
0"
#159500
1"
#159700
0"
#159800
1"
#159900
0"
#160000
b01 !
1"
#160100
0"
#160300
1"
#160400
0"
#160500
b00 !
1"
#160600
0"
#160700
1"
#160900
0"
#161000
1"
#161100
0"
#161200
1"
#161300
0"
#161500
1"
#161600
0"
#161700
1"
#161800
0"
#161900
1"
#162100
0"
#162200
1"
#162300
0"
#162400
1"
#162500
0"
#162600
1"
#162700
b01 !
#162800
0"
#162900
b00 !
1"
#163000
0"
#163100
1"
#163200
0"
#163400
1"
#163500
0"
#163600
1"
#163700
0"
#163800
b01 !
1"
#164000
0"
#164100
1"
#164200
0"
#164300
b00 !
1"
#164400
0"
#164600
1"
#164700
0"
#164800
1"
#164900
0"
#165000
1"
#165200
0"
#165300
1"
#165400
0"
#165500
1"
#165600
0"
#165700
1"
#165900
0"
#166000
1"
#166100
0"
#166200
1"
#166300
0"
#166500
b01 !
1"
#166600
0"
#166700
b00 !
1"
#166800
0"
#166900
1"
#167100
0"
#167200
1"
#167300
0"
#167400
1"
#167500
0"
#167700
b01 !
1"
#167800
0"
#187200
1&
#188200
0&
#215800
1%
1&
#216800
0%
#217700
0&
#223400
1&
#224400
0&
#235100
b11 !
#235200
1#
#236600
b01 !
#236700
1"
#236800
0"
#237000
b00 !
#237500
b01 !
#237800
b00 !
#238500
b01 !
#238700
1"
0#
#238800
0"
#238900
1"
#239000
b00 !
#239100
0"
#239200
1"
#239300
0"
#239400
b01 !
1"
#239500
0"
#239700
b00 !
1"
#239800
0"
#239900
1"
#240000
0"
#240100
1"
#240300
0"
#240400
1"
#240500
0"
#240600
1"
#240700
0"
#240900
1"
#241000
0"
#241100
1"
#241200
0"
#241300
1"
#241500
0"
#241600
1"
#241700
0"
#241800
b01 !
1"
#241900
0"
#242000
1"
#242200
0"
#242300
1"
#242400
0"
#242500
1"
#242600
0"
#242800
b00 !
1"
#242900
0"
#243000
1"
#243100
0"
#243200
b01 !
1"
#243400
0"
#243500
b00 !
1"
#243600
0"
#243700
1"
#243800
0"
#244000
1"
#244100
0"
#244200
1"
#244300
0"
#244400
1"
#244600
0"
#244700
1"
#244800
0"
#244900
1"
#245000
0"
#245100
1"
#245300
0"
#245400
1"
#245500
0"
#245600
b01 !
1"
#245700
0"
#245900
1"
#246000
0"
#246100
1"
#246200
0"
#246300
1"
#246500
0"
#246600
b00 !
1"
#246700
0"
#246800
1"
#246900
0"
#247100
b01 !
1"
#247200
0"
#247300
b00 !
1"
#247400
0"
#247500
1"
#247700
0"
#247800
1"
#247900
0"
#248000
1"
#248100
0"
#248200
1"
#248400
0"
#248500
1"
#248600
0"
#248700
1"
#248800
0"
#249000
1"
#249100
0"
#249200
1"
#249300
0"
#249400
b01 !
1"
#249600
0"
#249700
1"
#249800
0"
#249900
1"
#250000
0"
#250200
1"
#250300
0"
#250400
b00 !
1"
#250500
0"
#250600
1"
#250700
0"
#250900
b01 !
1"
#251000
0"
#251100
b00 !
1"
#251200
0"
#251300
1"
#251500
0"
#251600
1"
#251700
0"
#251800
1"
#251900
0"
#252100
1"
#252200
0"
#252300
1"
#252400
0"
#252500
1"
#252700
0"
#252800
1"
#252900
0"
#253000
1"
#253100
0"
#253200
1"
#253300
b01 !
#253400
0"
#253500
1"
#253600
0"
#253700
1"
#253800
0"
#254000
1"
#254100
0"
#254200
b00 !
1"
#254300
0"
#254400
1"
#254600
0"
#254700
b01 !
1"
#254800
0"
#254900
b00 !
1"
#255000
0"
#255200
1"
#255300
0"
#255400
1"
#255500
0"
#255600
1"
#255800
0"
#255900
1"
#256000
0"
#256100
1"
#256200
0"
#256300
1"
#256500
0"
#256600
1"
#256700
0"
#256800
1"
#256900
0"
#257100
b01 !
1"
#257200
0"
#257300
1"
#257400
0"
#257500
1"
#257700
0"
#257800
1"
#257900
0"
#258000
b00 !
1"
#258100
0"
#258300
1"
#258400
0"
#258500
b01 !
1"
#258600
0"
#258700
b00 !
1"
#258900
0"
#259000
1"
#259100
0"
#259200
1"
#259300
0"
#259400
1"
#259600
0"
#259700
1"
1&
#259800
0"
#259900
1"
#260000
0"
#260200
1"
#260300
0"
#260400
1"
#260500
0"
#260600
1"
0&
#260800
0"
#260900
b01 !
1"
#261000
0"
#261100
1"
#261200
0"
#261400
1"
#261500
0"
#261600
1"
#261700
0"
#261800
b00 !
1"
#262000
0"
#262100
1"
#262200
0"
#262300
b01 !
1"
#262400
0"
#262500
1"
#262600
b00 !
#262700
0"
#262800
1"
#262900
0"
#263000
1"
#263100
0"
#263300
1"
#263400
0"
#263500
1"
#263600
0"
#263700
1"
#263900
0"
#264000
1"
#264100
0"
#264200
1"
#264300
0"
#264500
1"
#264600
0"
#264700
b01 !
1"
#264800
0"
#264900
1"
#265100
0"
#265200
1"
#265300
0"
#265400
1"
#265500
0"
#265600
1"
#265700
b00 !
#265800
0"
#265900
1"
#266000
0"
#266100
b01 !
1"
#266200
0"
#266400
b00 !
1"
#266500
0"
#266600
1"
#266700
0"
#266800
1"
#267000
0"
#267100
1"
#267200
0"
#267300
1"
#267400
0"
#267600
1"
#267700
0"
#267800
1"
#267900
0"
#268000
1"
#268200
0"
#268300
1"
#268400
0"
#268500
b01 !
1"
#268600
0"
#268700
1"
#268900
0"
#269000
1"
#269100
0"
#269200
1"
#269300
0"
#269500
b00 !
1"
#269600
0"
#269700
1"
#269800
0"
#269900
b01 !
1"
#270100
0"
#270200
b00 !
1"
#270300
0"
#270400
1"
#270500
0"
#270700
1"
#270800
0"
#270900
1"
#271000
0"
#271100
1"
#271300
0"
#271400
1"
#271500
0"
#271600
1"
#271700
0"
#271800
1"
#272000
0"
#272100
1"
#272200
0"
#272300
b01 !
1"
#272400
0"
#272600
1"
#272700
0"
#272800
1"
#272900
0"
#273000
1"
#273200
0"
#273300
b00 !
1"
#273400
0"
#273500
1"
#273600
0"
#273800
b01 !
1"
#273900
0"
#274000
b00 !
1"
#274100
0"
#274200
1"
#274400
0"
#274500
1"
#274600
0"
#274700
1"
#274800
0"
#274900
1"
#275100
0"
#275200
1"
#275300
0"
#275400
1"
#275500
0"
#275700
1"
#275800
0"
#275900
1"
#276000
0"
#276100
b01 !
1"
#276300
0"
#276400
1"
#276500
0"
#295900
1&
#296900
0&
#324500
1%
1&
#325500
0%
#326400
0&
#332200
1&
#333100
0&
#343900
b00 !
1#
#345300
b01 !
#345400
1"
#345500
0"
#345800
b00 !
#347000
b01 !
#347400
1"
0#
#347600
0"
#347700
b00 !
1"
#347800
0"
#347900
1"
#348000
0"
#348100
1"
#348300
0"
#348400
1"
#348500
0"
#348600
1"
#348700
0"
#348900
b01 !
1"
#349000
0"
#349100
b00 !
1"
#349200
0"
#349300
1"
#349500
0"
#349600
1"
#349700
0"
#349800
1"
#349900
0"
#350100
b01 !
1"
#350200
0"
#350300
b00 !
1"
#350400
0"
#350500
1"
#350700
0"
#350800
b01 !
1"
#350900
0"
#351000
1"
#351100
0"
#351200
1"
#351400
0"
#351500
b00 !
1"
#351600
0"
#351700
1"
#351800
0"
#352000
1"
#352100
0"
#352200
1"
#352300
0"
#352400
1"
#352600
0"
#352700
b01 !
1"
#352800
0"
#352900
b00 !
1"
#353000
0"
#353200
1"
#353300
0"
#353400
1"
#353500
0"
#353600
1"
#353800
0"
#353900
b01 !
1"
#354000
0"
#354100
b00 !
1"
#354200
0"
#354300
1"
#354500
0"
#354600
b01 !
1"
#354700
0"
#354800
1"
#354900
0"
#355100
1"
#355200
0"
#355300
b00 !
1"
#355400
0"
#355500
1"
#355700
0"
#355800
1"
#355900
0"
#356000
1"
#356100
0"
#356300
1"
#356400
0"
#356500
b01 !
1"
#356600
0"
#356700
b00 !
1"
#356900
0"
#357000
1"
#357100
0"
#357200
1"
#357300
0"
#357400
1"
#357600
0"
#357700
b01 !
1"
#357800
0"
#357900
b00 !
1"
#358000
0"
#358200
1"
#358300
0"
#358400
b01 !
1"
#358500
0"
#358600
1"
#358800
0"
#358900
1"
#359000
0"
#359100
b00 !
1"
#359200
0"
#359400
1"
#359500
0"
#359600
1"
#359700
0"
#359800
1"
#360000
0"
#360100
1"
#360200
0"
#360300
b01 !
1"
#360400
0"
#360500
1"
#360600
b00 !
#360700
0"
#360800
1"
#360900
0"
#361000
1"
#361100
0"
#361300
1"
#361400
0"
#361500
b01 !
1"
#361600
0"
#361700
b00 !
1"
#361900
0"
#362000
1"
#362100
0"
#362200
b01 !
1"
#362300
0"
#362500
1"
#362600
0"
#362700
1"
#362800
0"
#362900
b00 !
1"
#363100
0"
#363200
1"
#363300
0"
#363400
1"
#363500
0"
#363600
1"
#363800
0"
#363900
1"
#364000
0"
#364100
b01 !
1"
#364200
0"
#364400
b00 !
1"
#364500
0"
#364600
1"
#364700
0"
#364800
1"
#365000
0"
#365100
1"
#365200
0"
#365300
b01 !
1"
#365400
0"
#365600
b00 !
1"
#365700
0"
#365800
1"
#365900
0"
#366000
b01 !
1"
#366100
0"
#366300
1"
#366400
0"
#366500
1"
#366600
0"
#366700
1"
#366800
b00 !
#366900
0"
#367000
1"
#367100
0"
#367200
1"
#367300
0"
#367500
1"
#367600
0"
#367700
1"
#367800
0"
#367900
b01 !
1"
#368100
0"
#368200
b00 !
1"
#368300
0"
#368400
1"
1&
#368500
0"
#368700
1"
#368800
0"
#368900
1"
#369000
0"
#369100
b01 !
1"
#369200
0"
#369400
b00 !
1"
0&
#369500
0"
#369600
1"
#369700
0"
#369800
b01 !
1"
#370000
0"
#370100
1"
#370200
0"
#370300
1"
#370400
0"
#370600
b00 !
1"
#370700
0"
#370800
1"
#370900
0"
#371000
1"
#371200
0"
#371300
1"
#371400
0"
#371500
1"
#371600
0"
#371700
1"
#371800
b01 !
#371900
0"
#372000
b00 !
1"
#372100
0"
#372200
1"
#372300
0"
#372500
1"
#372600
0"
#372700
1"
#372800
0"
#372900
b01 !
1"
#373100
0"
#373200
b00 !
1"
#373300
0"
#373400
1"
#373500
0"
#373700
b01 !
1"
#373800
0"
#373900
1"
#374000
0"
#374100
1"
#374300
0"
#374400
b00 !
1"
#374500
0"
#374600
1"
#374700
0"
#374800
1"
#375000
0"
#375100
1"
#375200
0"
#375300
1"
#375400
0"
#375600
b01 !
1"
#375700
0"
#375800
b00 !
1"
#375900
0"
#376000
1"
#376200
0"
#376300
1"
#376400
0"
#376500
1"
#376600
0"
#376800
b01 !
1"
#376900
0"
#377000
b00 !
1"
#377100
0"
#377200
1"
#377400
0"
#377500
b01 !
1"
#377600
0"
#377700
1"
#377800
0"
#377900
1"
#378100
0"
#378200
b00 !
1"
#378300
0"
#378400
1"
#378500
0"
#378700
1"
#378800
0"
#378900
1"
#379000
0"
#379100
1"
#379300
0"
#379400
b01 !
1"
#379500
0"
#379600
b00 !
1"
#379700
0"
#379900
1"
#380000
0"
#380100
1"
#380200
0"
#380300
1"
#380500
0"
#380600
b01 !
1"
#380700
0"
#380800
b00 !
1"
#380900
0"
#381000
1"
#381200
0"
#381300
b01 !
1"
#381400
0"
#381500
1"
#381600
0"
#381800
1"
#381900
0"
#382000
b00 !
1"
#382100
0"
#382200
1"
#382400
0"
#382500
1"
#382600
0"
#382700
1"
#382800
0"
#383000
1"
#383100
0"
#383200
b01 !
1"
#383300
0"
#383400
b00 !
1"
#383600
0"
#383700
1"
#383800
0"
#383900
1"
#384000
0"
#384100
1"
#384300
0"
#384400
b01 !
1"
#384500
0"
#384600
b00 !
1"
#384700
0"
#384900
1"
#385000
0"
#385100
b01 !
1"
#385200
0"
#404700
1&
#405600
0&
#433300
1%
1&
#434200
0%
#435200
0&
#440900
1&
#441800
0&
#452600
b00 !
#452700
1#
#454000
b01 !
#454100
1"
#454200
0"
#454500
b00 !
#454700
b01 !
#455000
b00 !
#455900
b01 !
#456200
1"
0#
#456300
0"
#456400
b00 !
1"
#456500
0"
#456600
b01 !
1"
#456800
0"
#456900
b00 !
1"
#457000
0"
#457100
1"
#457200
0"
#457300
1"
#457500
0"
#457600
1"
#457700
0"
#457800
1"
#457900
0"
#458100
1"
#458200
0"
#458300
1"
#458400
0"
#458500
1"
#458700
0"
#458800
1"
#458900
0"
#459000
1"
#459100
0"
#459300
1"
#459400
0"
#459500
b01 !
1"
#459600
0"
#459700
1"
#459900
0"
#460000
1"
#460100
0"
#460200
b00 !
1"
#460300
0"
#460400
1"
#460500
b01 !
#460600
0"
#460700
b00 !
1"
#460800
0"
#460900
1"
#461000
0"
#461200
1"
#461300
0"
#461400
1"
#461500
0"
#461600
1"
#461800
0"
#461900
1"
#462000
0"
#462100
1"
#462200
0"
#462400
1"
#462500
0"
#462600
1"
#462700
0"
#462800
1"
#463000
0"
#463100
1"
#463200
0"
#463300
b01 !
1"
#463400
0"
#463500
1"
#463700
0"
#463800
1"
#463900
0"
#464000
b00 !
1"
#464100
0"
#464300
b01 !
1"
#464400
0"
#464500
b00 !
1"
#464600
0"
#464700
1"
#464900
0"
#465000
1"
#465100
0"
#465200
1"
#465300
0"
#465500
1"
#465600
0"
#465700
1"
#465800
0"
#465900
1"
#466100
0"
#466200
1"
#466300
0"
#466400
1"
#466500
0"
#466600
1"
#466800
0"
#466900
1"
#467000
0"
#467100
b01 !
1"
#467200
0"
#467400
1"
#467500
0"
#467600
1"
#467700
0"
#467800
b00 !
1"
#468000
0"
#468100
b01 !
1"
#468200
0"
#468300
b00 !
1"
#468400
0"
#468600
1"
#468700
0"
#468800
1"
#468900
0"
#469000
1"
#469200
0"
#469300
1"
#469400
0"
#469500
1"
#469600
0"
#469700
1"
#469900
0"
#470000
1"
#470100
0"
#470200
1"
#470300
0"
#470500
1"
#470600
0"
#470700
1"
#470800
0"
#470900
b01 !
1"
#471100
0"
#471200
1"
#471300
0"
#471400
1"
#471500
0"
#471700
b00 !
1"
#471800
0"
#471900
b01 !
1"
#472000
0"
#472100
b00 !
1"
#472300
0"
#472400
1"
#472500
0"
#472600
1"
#472700
0"
#472800
1"
#473000
0"
#473100
1"
#473200
0"
#473300
1"
#473400
0"
#473600
1"
#473700
0"
#473800
1"
#473900
0"
#474000
1"
#474200
0"
#474300
1"
#474400
0"
#474500
1"
#474600
0"
#474800
b01 !
1"
#474900
0"
#475000
1"
#475100
0"
#475200
1"
#475400
0"
#475500
b00 !
1"
#475600
0"
#475700
b01 !
1"
#475800
0"
#475900
1"
#476000
b00 !
#476100
0"
#476200
1"
#476300
0"
#476400
1"
#476500
0"
#476700
1"
#476800
0"
#476900
1"
#477000
0"
#477100
1"
1&
#477300
0"
#477400
1"
#477500
0"
#477600
1"
#477700
0"
#477900
1"
#478000
0"
#478100
1"
0&
#478200
0"
#478300
1"
#478500
0"
#478600
b01 !
1"
#478700
0"
#478800
1"
#478900
0"
#479000
1"
#479200
0"
#479300
b00 !
1"
#479400
0"
#479500
b01 !
1"
#479600
0"
#479800
b00 !
1"
#479900
0"
#480000
1"
#480100
0"
#480200
1"
#480400
0"
#480500
1"
#480600
0"
#480700
1"
#480800
0"
#481000
1"
#481100
0"
#481200
1"
#481300
0"
#481400
1"
#481500
0"
#481700
1"
#481800
0"
#481900
1"
#482000
0"
#482100
1"
#482300
0"
#482400
b01 !
1"
#482500
0"
#482600
1"
#482700
0"
#482900
1"
#483000
0"
#483100
b00 !
1"
#483200
0"
#483300
b01 !
1"
#483500
0"
#483600
b00 !
1"
#483700
0"
#483800
1"
#483900
0"
#484100
1"
#484200
0"
#484300
1"
#484400
0"
#484500
1"
#484600
0"
#484800
1"
#484900
0"
#485000
1"
#485100
0"
#485200
1"
#485400
0"
#485500
1"
#485600
0"
#485700
1"
#485800
0"
#486000
1"
#486100
0"
#486200
b01 !
1"
#486300
0"
#486400
1"
#486600
0"
#486700
1"
#486800
0"
#486900
b00 !
1"
#487000
0"
#487100
1"
#487200
b01 !
#487300
0"
#487400
b00 !
1"
#487500
0"
#487600
1"
#487700
0"
#487900
1"
#488000
0"
#488100
1"
#488200
0"
#488300
1"
#488500
0"
#488600
1"
#488700
0"
#488800
1"
#488900
0"
#489100
1"
#489200
0"
#489300
1"
#489400
0"
#489500
1"
#489700
0"
#489800
1"
#489900
0"
#490000
b01 !
1"
#490100
0"
#490200
1"
#490400
0"
#490500
1"
#490600
0"
#490700
b00 !
1"
#490800
0"
#491000
b01 !
1"
#491100
0"
#491200
b00 !
1"
#491300
0"
#491400
1"
#491600
0"
#491700
1"
#491800
0"
#491900
1"
#492000
0"
#492200
1"
#492300
0"
#492400
1"
#492500
0"
#492600
1"
#492800
0"
#492900
1"
#493000
0"
#493100
1"
#493200
0"
#493300
1"
#493500
0"
#493600
1"
#493700
0"
#493800
b01 !
1"
#493900
0"
#513400
1&
#514300
0&
#542000
1%
1&
#542900
0%
#543900
0&
#549600
1&
#550600
0&
#561300
b00 !
#561400
1#
#562700
b01 !
#562900
1"
#563000
0"
#563200
b00 !
#564600
b01 !
#564900
1"
0#
#565000
0"
#565100
b00 !
1"
#565200
0"
#565400
1"
#565500
0"
#565600
1"
#565700
0"
#565800
1"
#566000
0"
#566100
1"
#566200
0"
#566300
1"
#566400
0"
#566500
1"
#566600
b01 !
#566700
0"
#566800
b00 !
1"
#566900
0"
#567000
1"
#567100
0"
#567300
1"
#567400
0"
#567500
1"
#567600
0"
#567700
b01 !
1"
#567900
0"
#568000
b00 !
1"
#568100
0"
#568200
b01 !
1"
#568300
0"
#568500
1"
#568600
0"
#568700
1"
#568800
0"
#568900
b00 !
1"
#569100
0"
#569200
1"
#569300
0"
#569400
1"
#569500
0"
#569600
1"
#569800
0"
#569900
1"
#570000
0"
#570100
1"
#570200
0"
#570400
b01 !
1"
#570500
0"
#570600
b00 !
1"
#570700
0"
#570800
1"
#571000
0"
#571100
1"
#571200
0"
#571300
1"
#571400
0"
#571600
b01 !
1"
#571700
0"
#571800
b00 !
1"
#571900
0"
#572000
b01 !
1"
#572200
0"
#572300
1"
#572400
0"
#572500
1"
#572600
0"
#572700
1"
#572800
b00 !
#572900
0"
#573000
1"
#573100
0"
#573200
1"
#573300
0"
#573500
1"
#573600
0"
#573700
1"
#573800
0"
#573900
1"
#574100
0"
#574200
b01 !
1"
#574300
0"
#574400
b00 !
1"
#574500
0"
#574700
1"
#574800
0"
#574900
1"
#575000
0"
#575100
1"
#575300
0"
#575400
b01 !
1"
#575500
0"
#575600
b00 !
1"
#575700
0"
#575800
1"
#575900
b01 !
#576000
0"
#576100
1"
#576200
0"
#576300
1"
#576400
0"
#576600
b00 !
1"
#576700
0"
#576800
1"
#576900
0"
#577000
1"
#577200
0"
#577300
1"
#577400
0"
#577500
1"
#577600
0"
#577800
1"
#577900
0"
#578000
b01 !
1"
#578100
0"
#578200
b00 !
1"
#578400
0"
#578500
1"
#578600
0"
#578700
1"
#578800
0"
#578900
1"
#579100
0"
#579200
b01 !
1"
#579300
0"
#579400
b00 !
1"
#579500
0"
#579700
b01 !
1"
#579800
0"
#579900
1"
#580000
0"
#580100
1"
#580300
0"
#580400
b00 !
1"
#580500
0"
#580600
1"
#580700
0"
#580900
1"
#581000
0"
#581100
1"
#581200
0"
#581300
1"
#581500
0"
#581600
1"
#581700
0"
#581800
b01 !
1"
#581900
0"
#582000
1"
#582100
b00 !
#582200
0"
#582300
1"
#582400
0"
#582500
1"
#582600
0"
#582800
1"
#582900
0"
#583000
b01 !
1"
#583100
0"
#583200
b00 !
1"
#583400
0"
#583500
b01 !
1"
#583600
0"
#583700
1"
#583800
0"
#584000
1"
#584100
0"
#584200
b00 !
1"
#584300
0"
#584400
1"
#584600
0"
#584700
1"
#584800
0"
#584900
1"
#585000
0"
#585100
1"
#585300
0"
#585400
1"
#585500
0"
#585600
b01 !
1"
#585700
0"
#585900
b00 !
1"
1&
#586000
0"
#586100
1"
#586200
0"
#586300
1"
#586500
0"
#586600
1"
#586700
0"
#586800
b01 !
1"
0&
#586900
0"
#587100
b00 !
1"
#587200
0"
#587300
b01 !
1"
#587400
0"
#587500
1"
#587700
0"
#587800
1"
#587900
0"
#588000
b00 !
1"
#588100
0"
#588200
1"
#588400
0"
#588500
1"
#588600
0"
#588700
1"
#588800
0"
#589000
1"
#589100
0"
#589200
1"
#589300
0"
#589400
b01 !
1"
#589600
0"
#589700
b00 !
1"
#589800
0"
#589900
1"
#590000
0"
#590200
1"
#590300
0"
#590400
1"
#590500
0"
#590600
b01 !
1"
#590800
0"
#590900
b00 !
1"
#591000
0"
#591100
b01 !
1"
#591200
0"
#591300
1"
#591500
0"
#591600
1"
#591700
0"
#591800
b00 !
1"
#591900
0"
#592100
1"
#592200
0"
#592300
1"
#592400
0"
#592500
1"
#592700
0"
#592800
1"
#592900
0"
