blog/capturing-gb-lcd/frame-end.vcd
$date
  Sat Jul 18 08:00:59 2020
$end
$version
   Sump dumper
$end
$timescale 1ns $end
$var wire 2 ! data $end
$var wire 1 " clk $end
$var wire 1 # hsync $end
$var wire 1 $ vsync $end
$var wire 1 % cpl $end
$var wire 1 & c $end
$enddefinitions $end
$dumpvars
b00 !
0"
0#
0$
0%
0&
$end
#89200
1%
1&
#89300
0%
0&
#89600
1%
1&
#89700
0%
0&
#90000
1%
1&
#90100
0%
0&
#90400
1%
1&
#90500
0%
0&
#90800
1%
1&
#90900
0%
0&
#91200
1%
1&
#91300
0%
0&
#91600
1%
1&
#91700
0%
0&
#92000
1%
1&
#92100
0%
0&
#92400
1%
1&
#92500
0%
0&
#92800
1&
#92900
0&
#93200
1&
#93300
0&
#93600
1&
#93700
0&
#94000
1&
#94100
0&
#94400
1&
#94500
0&
#94800
1&
#94900
0&
#95200
1&
#95300
0&
#95600
1&
#95700
0&
#96000
1&
#96100
0&
#96400
1&
#96500
0&
#119600
1&
#119700
0&
#120000
1&
#120100
0&
#120400
1&
#120500
0&
#120800
1&
#120900
0&
#121200
1&
#121300
0&
#121600
1&
#121700
0&
#122000
1&
#122100
0&
#122400
1&
#122500
0&
#122800
1&
#122900
0&
#123200
1&
#123300
0&
#166800
1#
#166900
0#
#167200
1#
#167300
0#
#167600
1#
#167700
0#
#168000
1#
#168100
0#
#168400
1#
#168500
0#
#168800
1#
#168900
0#
#169200
1#
#169300
0#
#169600
1#
#169700
0#
#170000
1#
#170100
0#
#170400
1#
#170500
0#
#170800
1#
#170900
0#
#171200
1#
#171300
0#
#171600
1#
#171700
0#
#172000
1#
#172100
0#
#172400
1"
1#
#172500
0"
0#
#172800
1#
#172900
0#
#173200
1#
#173300
0#
#173600
1#
#173700
0#
#174000
1#
#174100
0#
#174400
1#
#174500
0#
#174800
1#
#174900
0#
#175200
1#
#175300
0#
#175600
1#
#175700
0#
#176000
b01 !
1#
#176100
b00 !
0#
#176400
b01 !
1#
#176500
b00 !
0#
#176800
1#
#176900
0#
#177200
1#
#177300
0#
#177600
1#
#177700
0#
#178000
1#
#178100
0#
#178400
1#
#178500
0#
#178800
b01 !
1#
#178900
b00 !
0#
#179200
b01 !
1#
#179300
b00 !
0#
#179600
1#
#179700
0#
#180000
1#
#180100
0#
#180400
1#
#180500
0#
#180800
1"
#180900
0"
#181600
1"
#181700
0"
#182400
1"
#182500
0"
#182800
1"
#182900
0"
#183600
b01 !
1"
#183700
b00 !
0"
#184000
b01 !
#184100
b00 !
#184400
1"
#184500
0"
#185600
1"
#185700
0"
#186400
b01 !
1"
#186500
b00 !
0"
#186800
b01 !
#186900
b00 !
#187200
b01 !
1"
#187300
b00 !
0"
#187600
b01 !
#187700
b00 !
#188000
b01 !
#188100
b00 !
#188400
b01 !
1"
#188500
b00 !
0"
#188800
b01 !
#188900
b00 !
#189200
1"
#189300
0"
#190000
1"
#190100
0"
#190400
1"
#190500
0"
#191200
1"
#191300
0"
#192000
1"
#192100
0"
#193200
1"
#193300
0"
#194000
b01 !
1"
#194100
b00 !
0"
#194400
b01 !
#194500
b00 !
#194800
1"
#194900
0"
#195200
1"
#195300
0"
#196000
1"
#196100
0"
#196800
1"
#196900
0"
#198000
1"
#198100
0"
#198800
b01 !
1"
#198900
b00 !
0"
#199200
b01 !
#199300
b00 !
#199600
1"
#199700
0"
#200800
1"
#200900
0"
#201600
b01 !
1"
#201700
b00 !
0"
#202000
b01 !
#202100
b00 !
#202400
b01 !
1"
#202500
b00 !
0"
#202800
b01 !
1"
#202900
b00 !
0"
#203200
b01 !
#203300
b00 !
#203600
b01 !
1"
#203700
b00 !
0"
#204000
b01 !
#204100
b00 !
#204400
1"
#204500
0"
#205600
1"
#205700
0"
#206400
1"
#206500
0"
#207200
1"
#207300
0"
#207600
1"
#207700
0"
#208400
1"
#208500
0"
#209200
b01 !
1"
#209300
b00 !
0"
#209600
b01 !
#209700
b00 !
#210000
b01 !
#210100
b00 !
#210400
1"
#210500
0"
#211200
1"
#211300
0"
#212000
1"
#212100
0"
#213200
b11 !
1"
#213300
b00 !
0"
#213600
b11 !
#213700
b00 !
#214000
b10 !
1"
#214100
b00 !
0"
#214400
b10 !
#214500
b00 !
#214800
b11 !
1"
#214900
b00 !
0"
#215200
b11 !
1"
#215300
b00 !
0"
#215600
b11 !
#215700
b00 !
#216000
b01 !
1"
#216100
b00 !
0"
#216400
b01 !
#216500
b00 !
#216800
b10 !
1"
#216900
b00 !
0"
#217200
b10 !
#217300
b00 !
#217600
b10 !
#217700
b00 !
#218000
b01 !
1"
#218100
b00 !
0"
#218400
b01 !
#218500
b00 !
#218800
b01 !
1"
#218900
b00 !
0"
#219200
b01 !
#219300
b00 !
#219600
b10 !
1"
#219700
b00 !
0"
#220000
b10 !
1"
#220100
b00 !
0"
#220400
b10 !
#220500
b00 !
#220800
b01 !
1"
#220900
b00 !
0"
#221200
b01 !
#221300
b00 !
#221600
b11 !
1"
#221700
b00 !
0"
#222000
b11 !
#222100
b00 !
#222400
b11 !
1"
#222500
b00 !
0"
#222800
1"
#222900
0"
#223600
1"
#223700
0"
#224400
b11 !
1"
#224500
b00 !
0"
#224800
b11 !
#224900
b00 !
#225200
b11 !
#225300
b00 !
#225600
b11 !
1"
#225700
b00 !
0"
#226000
b11 !
#226100
b00 !
#226400
1"
#226500
0"
#227200
1"
#227300
0"
#227600
1"
#227700
0"
#228400
1"
#228500
0"
#229200
1"
#229300
0"
#230400
1"
#230500
0"
#231200
b10 !
1"
#231300
b00 !
0"
#231600
b10 !
#231700
b00 !
#232000
b10 !
1"
#232100
b00 !
0"
#232400
b10 !
1"
#232500
b00 !
0"
#232800
b10 !
#232900
b00 !
#233200
b11 !
1"
#233300
b00 !
0"
#233600
b11 !
#233700
b00 !
#234000
b11 !
1"
#234100
b00 !
0"
#234400
b11 !
#234500
b00 !
#234800
b11 !
1"
#234900
b00 !
0"
#235200
1"
#235300
0"
#236000
1"
#236100
0"
#236800
1"
#236900
0"
#238000
1"
#238100
0"
#238800
1"
#238900
0"
#239600
b01 !
1"
#239700
b00 !
0"
#240000
b01 !
1"
#240100
b00 !
0"
#240400
b01 !
#240500
b00 !
#240800
1"
#240900
0"
#241600
1"
#241700
0"
#242800
1"
#242900
0"
#243600
1"
#243700
0"
#244400
b01 !
1"
#244500
b00 !
0"
#244800
b01 !
1"
#244900
b00 !
0"
#245200
b01 !
#245300
b00 !
#245600
1"
#245700
0"
#246400
1"
#246500
0"
#247200
1"
#247300
0"
#247600
b01 !
1"
#247700
b00 !
0"
#248000
b01 !
#248100
b00 !
#248400
b01 !
1"
#248500
b00 !
0"
#248800
b01 !
#248900
b00 !
#249200
b01 !
1"
#249300
b00 !
0"
#249600
b01 !
#249700
b00 !
#250000
b01 !
#250100
b00 !
#250400
1"
#250500
0"
#251200
1"
#251300
0"
#252000
1"
#252100
0"
#252400
1"
#252500
0"
#253200
1"
#253300
0"
#254000
1"
#254100
0"
#255200
b01 !
1"
#255300
b00 !
0"
#255600
b01 !
#255700
b00 !
#256000
1"
#256100
0"
#256800
1"
#256900
0"
#257200
1"
#257300
0"
#258000
1"
#258100
0"
#258800
1"
#258900
0"
#259600
1"
#259700
0"
#260000
b01 !
1"
#260100
b00 !
0"
#260400
b01 !
#260500
b00 !
#260800
1"
#260900
0"
#261600
1"
#261700
0"
#262800
b01 !
1"
#262900
b00 !
0"
#263200
b01 !
#263300
b00 !
#263600
b01 !
1"
#263700
b00 !
0"
#264000
b01 !
#264100
b00 !
#264400
b01 !
1"
1&
#264500
b00 !
0"
0&
#264800
b01 !
1"
1&
#264900
b00 !
0"
0&
#265200
b01 !
1&
#265300
b00 !
0&
#265600
1"
1&
#265700
0"
0&
#266000
1&
#266100
0&
#266400
1"
1&
#266500
0"
0&
#266800
1&
#266900
0&
#267200
1&
#267300
0&
#267600
1"
1&
#267700
0"
0&
#268000
1&
#268100
0&
#268400
1"
#268500
0"
#269200
1"
#269300
0"
#269600
1"
#269700
0"
#270400
b01 !
1"
#270500
b00 !
0"
#270800
b01 !
#270900
b00 !
#271200
1"
#271300
0"
#272000
1"
#272100
0"
#272400
1"
#272500
0"
#273200
1"
#273300
0"
#274000
1"
#274100
0"
#275200
b01 !
1"
#275300
b00 !
0"
#275600
b01 !
#275700
b00 !
#276000
1"
#276100
0"
#276800
1"
#276900
0"
#277200
1"
#277300
0"
#278000
b01 !
1"
#278100
b00 !
0"
#278400
b01 !
#278500
b00 !
#278800
b01 !
1"
#278900
b00 !
0"
#279200
b01 !
#279300
b00 !
#279600
b01 !
#279700
b00 !
#280000
1"
#280100
0"
#280800
1"
#280900
0"
#281600
b01 !
1"
#281700
b00 !
0"
#282000
b01 !
1"
#282100
b00 !
0"
#282400
b01 !
#282500
b00 !
#282800
1"
#282900
0"
#283600
1"
#283700
0"
#284400
1"
#284500
0"
#284800
1"
#284900
0"
#285600
1"
#285700
0"
#286400
b01 !
1"
#286500
b00 !
0"
#286800
b01 !
#286900
b00 !
#287200
b01 !
#287300
b00 !
#287600
1"
#287700
0"
#288400
1"
#288500
0"
#289200
b11 !
1"
#289300
b00 !
0"
#289600
b11 !
1"
#289700
b00 !
0"
#290000
b11 !
#290100
b00 !
#290400
b10 !
1"
#290500
b00 !
0"
#290800
b10 !
#290900
b00 !
#291200
b11 !
1"
#291300
b00 !
0"
#291600
b11 !
#291700
b00 !
#292000
b11 !
#292100
b00 !
#292400
b01 !
1"
#292500
b00 !
0"
#292800
b01 !
#292900
b00 !
#293200
b10 !
1"
#293300
b00 !
0"
#293600
b10 !
#293700
b00 !
#294000
b01 !
1"
#294100
b00 !
0"
#294400
b01 !
1"
#294500
b00 !
0"
#294800
b01 !
#294900
b00 !
#295200
b10 !
1"
#295300
b00 !
0"
#295600
b10 !
#295700
b00 !
#296000
b01 !
1"
#296100
b00 !
0"
#296400
b01 !
#296500
b00 !
#296800
b01 !
1"
#296900
b00 !
0"
#297200
1"
#297300
0"
#298000
b11 !
1"
#298100
b00 !
0"
#298400
b11 !
#298500
b00 !
#298800
1"
#298900
0"
#300000
1"
#300100
0"
#300800
1"
#300900
0"
#301600
b01 !
1"
#301700
b00 !
0"
#302000
b01 !
1"
#302100
b00 !
0"
#302400
b01 !
#302500
b00 !
#302800
1"
#302900
0"
#303600
1"
#303700
0"
#304800
1"
#304900
0"
#305600
1"
#305700
0"
#306400
1"
#306500
0"
#306800
1"
#306900
0"
#307600
b01 !
1"
#307700
b00 !
0"
#308000
b01 !
#308100
b00 !
#308400
b01 !
1"
#308500
b00 !
0"
#308800
b01 !
#308900
b00 !
#309200
b01 !
1"
#309300
b00 !
0"
#309600
b01 !
1"
#309700
b00 !
0"
#310000
b01 !
#310100
b00 !
#310400
b01 !
1"
#310500
b00 !
0"
#310800
b01 !
#310900
b00 !
#311200
1"
#311300
0"
#312400
1"
#312500
0"
#313200
1"
#313300
0"
#314000
1"
#314100
0"
#314400
1"
#314500
0"
#315200
1"
#315300
0"
#316000
b01 !
1"
#316100
b00 !
0"
#316400
b01 !
#316500
b00 !
#316800
b01 !
#316900
b00 !
#317200
1"
#317300
0"
#318000
1"
#318100
0"
#318800
1"
#318900
0"
#319200
1"
#319300
0"
#320000
1"
#320100
0"
#320800
b01 !
1"
#320900
b00 !
0"
#321200
b01 !
#321300
b00 !
#321600
b01 !
1"
#321700
b00 !
0"
#322000
1"
#322100
0"
#322800
1"
#322900
0"
#323600
b01 !
1"
#323700
b00 !
0"
#324000
b01 !
#324100
b00 !
#324400
b01 !
#324500
b00 !
#324800
b01 !
1"
#324900
b00 !
0"
#325200
b01 !
#325300
b00 !
#325600
b01 !
1"
#325700
b00 !
0"
#326000
b01 !
#326100
b00 !
#326400
1"
#326500
0"
#326800
1"
#326900
0"
#327600
1"
#327700
0"
#328400
1"
#328500
0"
#329600
1"
#329700
0"
#330400
1"
#330500
0"
#331200
b01 !
1"
#331300
b00 !
0"
#331600
b01 !
#331700
b00 !
#332000
b01 !
#332100
b00 !
#332400
b01 !
#332500
b00 !
#332800
b01 !
#332900
b00 !
#333200
b01 !
#333300
b00 !
#333600
b01 !
#333700
b00 !
#334000
b01 !
#334100
b00 !
#334400
b01 !
#334500
b00 !
#334800
b01 !
#334900
b00 !
#335200
b01 !
#335300
b00 !
#335600
b01 !
#335700
b00 !
#336000
b01 !
#336100
b00 !
#336400
b01 !
#336500
b00 !
#336800
b01 !
#336900
b00 !
#337200
b01 !
#337300
b00 !
#337600
b01 !
#337700
b00 !
#338000
b01 !
#338100
b00 !
#338400
b01 !
#338500
b00 !
#338800
b01 !
#338900
b00 !
#339200
b01 !
#339300
b00 !
#339600
b01 !
#339700
b00 !
#340000
b01 !
#340100
b00 !
#340400
b01 !
#340500
b00 !
#340800
b01 !
#340900
b00 !
#341200
b01 !
#341300
b00 !
#341600
b01 !
#341700
b00 !
#342000
b01 !
#342100
b00 !
#342400
b01 !
#342500
b00 !
#342800
b01 !
#342900
b00 !
#343200
b01 !
#343300
b00 !
#343600
b01 !
#343700
b00 !
#344000
b01 !
#344100
b00 !
#344400
b01 !
#344500
b00 !
#344800
b01 !
#344900
b00 !
#345200
b01 !
#345300
b00 !
#345600
b01 !
#345700
b00 !
#346000
b01 !
#346100
b00 !
#346400
b01 !
#346500
b00 !
#346800
b01 !
#346900
b00 !
#347200
b01 !
#347300
b00 !
#347600
b01 !
#347700
b00 !
#348000
b01 !
#348100
b00 !
#348400
b01 !
#348500
b00 !
#348800
b01 !
#348900
b00 !
#349200
b01 !
#349300
b00 !
#349600
b01 !
#349700
b00 !
#350000
b01 !
#350100
b00 !
#350400
b01 !
#350500
b00 !
#350800
b01 !
#350900
b00 !
#351200
b01 !
#351300
b00 !
#351600
b01 !
#351700
b00 !
#352000
b01 !
#352100
b00 !
#352400
b01 !
#352500
b00 !
#352800
b01 !
#352900
b00 !
#353200
b01 !
#353300
b00 !
#353600
b01 !
#353700
b00 !
#354000
b01 !
#354100
b00 !
#354400
b01 !
#354500
b00 !
#354800
b01 !
#354900
b00 !
#355200
b01 !
#355300
b00 !
#355600
b01 !
#355700
b00 !
#356000
b01 !
#356100
b00 !
#356400
b01 !
#356500
b00 !
#356800
b01 !
#356900
b00 !
#357200
b01 !
#357300
b00 !
#357600
b01 !
#357700
b00 !
#358000
b01 !
#358100
b00 !
#358400
b01 !
#358500
b00 !
#358800
b01 !
#358900
b00 !
#359200
b01 !
#359300
b00 !
#359600
b01 !
#359700
b00 !
#360000
b01 !
#360100
b00 !
#360400
b01 !
#360500
b00 !
#360800
b01 !
#360900
b00 !
#361200
b01 !
#361300
b00 !
#361600
b01 !
#361700
b00 !
#362000
b01 !
#362100
b00 !
#362400
b01 !
#362500
b00 !
#362800
b01 !
#362900
b00 !
#363200
b01 !
#363300
b00 !
#363600
b01 !
#363700
b00 !
#364000
b01 !
#364100
b00 !
#364400
b01 !
#364500
b00 !
#364800
b01 !
#364900
b00 !
#365200
b01 !
#365300
b00 !
#365600
b01 !
#365700
b00 !
#366000
b01 !
#366100
b00 !
#366400
b01 !
#366500
b00 !
#366800
b01 !
#366900
b00 !
#367200
b01 !
#367300
b00 !
#367600
b01 !
#367700
b00 !
#368000
b01 !
#368100
b00 !
#368400
b01 !
#368500
b00 !
#368800
b01 !
#368900
b00 !
#369200
b01 !
#369300
b00 !
#369600
b01 !
#369700
b00 !
#370000
b01 !
#370100
b00 !
#370400
b01 !
#370500
b00 !
#370800
b01 !
#370900
b00 !
#371200
b01 !
#371300
b00 !
#371600
b01 !
#371700
b00 !
#372000
b01 !
#372100
b00 !
#372400
b01 !
#372500
b00 !
#372800
b01 !
#372900
b00 !
#373200
b01 !
#373300
b00 !
#373600
b01 !
#373700
b00 !
#374000
b01 !
#374100
b00 !
#374400
b01 !
#374500
b00 !
#374800
b01 !
#374900
b00 !
#375200
b01 !
#375300
b00 !
#375600
b01 !
#375700
b00 !
#376000
b01 !
#376100
b00 !
#376400
b01 !
#376500
b00 !
#376800
b01 !
#376900
b00 !
#377200
b01 !
#377300
b00 !
#377600
b01 !
#377700
b00 !
#378000
b01 !
#378100
b00 !
#378400
b01 !
#378500
b00 !
#378800
b01 !
#378900
b00 !
#379200
b01 !
#379300
b00 !
#379600
b01 !
#379700
b00 !
#380000
b01 !
#380100
b00 !
#380400
b01 !
#380500
b00 !
#380800
b01 !
#380900
b00 !
#381200
b01 !
#381300
b00 !
#381600
b01 !
#381700
b00 !
#382000
b01 !
#382100
b00 !
#382400
b01 !
#382500
b00 !
#382800
b01 !
#382900
b00 !
#383200
b01 !
#383300
b00 !
#383600
b01 !
#383700
b00 !
#384000
b01 !
#384100
b00 !
#384400
b01 !
#384500
b00 !
#384800
b01 !
#384900
b00 !
#385200
b01 !
#385300
b00 !
#385600
b01 !
#385700
b00 !
#386000
b01 !
#386100
b00 !
#386400
b01 !
#386500
b00 !
#386800
b01 !
#386900
b00 !
#387200
b01 !
#387300
b00 !
#387600
b01 !
#387700
b00 !
#388000
b01 !
#388100
b00 !
#388400
b01 !
#388500
b00 !
#388800
b01 !
#388900
b00 !
#389200
b01 !
#389300
b00 !
#389600
b01 !
#389700
b00 !
#390000
b01 !
#390100
b00 !
#390400
b01 !
#390500
b00 !
#390800
b01 !
#390900
b00 !
#391200
b01 !
#391300
b00 !
#391600
b01 !
#391700
b00 !
#392000
b01 !
#392100
b00 !
#392400
b01 !
#392500
b00 !
#392800
b01 !
#392900
b00 !
#393200
b01 !
#393300
b00 !
#393600
b01 !
#393700
b00 !
#394000
b01 !
#394100
b00 !
#394400
b01 !
#394500
b00 !
#394800
b01 !
#394900
b00 !
#395200
b01 !
#395300
b00 !
#395600
b01 !
#395700
b00 !
#396000
b01 !
#396100
b00 !
#396400
b01 !
#396500
b00 !
#396800
b01 !
#396900
b00 !
#397200
b01 !
#397300
b00 !
#397600
b01 !
#397700
b00 !
#398000
b01 !
#398100
b00 !
#398400
b01 !
#398500
b00 !
#398800
b01 !
#398900
b00 !
#399200
b01 !
#399300
b00 !
#399600
b01 !
#399700
b00 !
#400000
b01 !
#400100
b00 !
#400400
b01 !
#400500
b00 !
#400800
b01 !
#400900
b00 !
#401200
b01 !
#401300
b00 !
#401600
b01 !
#401700
b00 !
#402000
b01 !
#402100
b00 !
#402400
b01 !
#402500
b00 !
#402800
b01 !
#402900
b00 !
#403200
b01 !
#403300
b00 !
#403600
b01 !
#403700
b00 !
#404000
b01 !
#404100
b00 !
#404400
b01 !
#404500
b00 !
#404800
b01 !
#404900
b00 !
#405200
b01 !
#405300
b00 !
#405600
b01 !
#405700
b00 !
#406000
b01 !
#406100
b00 !
#406400
b01 !
#406500
b00 !
#406800
b01 !
#406900
b00 !
#407200
b01 !
#407300
b00 !
#407600
b01 !
#407700
b00 !
#408000
b01 !
#408100
b00 !
#408400
b01 !
#408500
b00 !
#408800
b01 !
#408900
b00 !
#409200
b01 !
#409300
b00 !
#409600
b01 !
1&
#409700
b00 !
0&
#410000
b01 !
1&
#410100
b00 !
0&
#410400
b01 !
1&
#410500
b00 !
0&
#410800
b01 !
1&
#410900
b00 !
0&
#411200
b01 !
1&
#411300
b00 !
0&
#411600
b01 !
1&
#411700
b00 !
0&
#412000
b01 !
1&
#412100
b00 !
0&
#412400
b01 !
1&
#412500
b00 !
0&
#412800
b01 !
1&
#412900
b00 !
0&
#413200
b01 !
#413300
b00 !
#413600
b01 !
#413700
b00 !
#414000
b01 !
#414100
b00 !
#414400
b01 !
#414500
b00 !
#414800
b01 !
#414900
b00 !
#415200
b01 !
#415300
b00 !
#415600
b01 !
#415700
b00 !
#416000
b01 !
#416100
b00 !
#416400
b01 !
#416500
b00 !
#416800
b01 !
#416900
b00 !
#417200
b01 !
#417300
b00 !
#417600
b01 !
#417700
b00 !
#418000
b01 !
#418100
b00 !
#418400
b01 !
#418500
b00 !
#418800
b01 !
#418900
b00 !
#419200
b01 !
#419300
b00 !
#419600
b01 !
#419700
b00 !
#420000
b01 !
#420100
b00 !
#420400
b01 !
#420500
b00 !
#420800
b01 !
#420900
b00 !
#421200
b01 !
#421300
b00 !
#421600
b01 !
#421700
b00 !
#422000
b01 !
#422100
b00 !
#422400
b01 !
#422500
b00 !
#422800
b01 !
#422900
b00 !
#423200
b01 !
#423300
b00 !
#423600
b01 !
#423700
b00 !
#424000
b01 !
#424100
b00 !
#424400
b01 !
#424500
b00 !
#424800
b01 !
#424900
b00 !
#425200
b01 !
#425300
b00 !
#425600
b01 !
#425700
b00 !
#426000
b01 !
#426100
b00 !
#426400
b01 !
#426500
b00 !
#426800
b01 !
#426900
b00 !
#427200
b01 !
#427300
b00 !
#427600
b01 !
#427700
b00 !
#428000
b01 !
#428100
b00 !
#428400
b01 !
#428500
b00 !
#428800
b01 !
#428900
b00 !
#429200
b01 !
#429300
b00 !
#429600
b01 !
#429700
b00 !
#430000
b01 !
#430100
b00 !
#430400
b01 !
#430500
b00 !
#430800
b01 !
#430900
b00 !
#431200
b01 !
#431300
b00 !
#431600
b01 !
#431700
b00 !
#432000
b01 !
#432100
b00 !
#432400
b01 !
#432500
b00 !
#432800
b01 !
#432900
b00 !
#433200
b01 !
#433300
b00 !
#433600
b01 !
#433700
b00 !
#434000
b01 !
#434100
b00 !
#434400
b01 !
#434500
b00 !
#434800
b01 !
#434900
b00 !
#435200
b01 !
#435300
b00 !
#435600
b01 !
#435700
b00 !
#436000
b01 !
#436100
b00 !
#436400
b01 !
#436500
b00 !
#436800
b01 !
#436900
b00 !
#437200
b01 !
#437300
b00 !
#437600
b01 !
#437700
b00 !
#438000
b01 !
#438100
b00 !
#438400
b01 !
#438500
b00 !
#438800
b01 !
#438900
b00 !
#439200
b01 !
#439300
b00 !
#439600
b01 !
#439700
b00 !
#440000
b01 !
#440100
b00 !
#440400
b01 !
#440500
b00 !
#440800
b01 !
#440900
b00 !
#441200
b01 !
#441300
b00 !
#441600
b01 !
#441700
b00 !
#442000
b01 !
#442100
b00 !
#442400
b01 !
#442500
b00 !
#442800
b01 !
#442900
b00 !
#443200
b01 !
#443300
b00 !
#443600
b01 !
#443700
b00 !
#444000
b01 !
#444100
b00 !
#444400
b01 !
#444500
b00 !
#444800
b01 !
#444900
b00 !
#445200
b01 !
#445300
b00 !
#445600
b01 !
#445700
b00 !
#446000
b01 !
#446100
b00 !
#446400
b01 !
#446500
b00 !
#446800
b01 !
#446900
b00 !
#447200
b01 !
#447300
b00 !
#447600
b01 !
#447700
b00 !
#448000
b01 !
#448100
b00 !
#448400
b01 !
#448500
b00 !
#448800
b01 !
#448900
b00 !
#449200
b01 !
#449300
b00 !
#449600
b01 !
#449700
b00 !
#450000
b01 !
#450100
b00 !
#450400
b01 !
#450500
b00 !
#450800
b01 !
#450900
b00 !
#451200
b01 !
#451300
b00 !
#451600
b01 !
#451700
b00 !
#452000
b01 !
#452100
b00 !
#452400
b01 !
#452500
b00 !
#452800
b01 !
#452900
b00 !
#453200
b01 !
#453300
b00 !
#453600
b01 !
#453700
b00 !
#454000
b01 !
#454100
b00 !
#454400
b01 !
#454500
b00 !
#454800
b01 !
#454900
b00 !
#455200
b01 !
#455300
b00 !
#455600
b01 !
#455700
b00 !
#456000
b01 !
#456100
b00 !
#456400
b01 !
#456500
b00 !
#456800
b01 !
#456900
b00 !
#457200
b01 !
#457300
b00 !
#457600
b01 !
#457700
b00 !
#458000
b01 !
#458100
b00 !
#458400
b01 !
#458500
b00 !
#458800
b01 !
#458900
b00 !
#459200
b01 !
#459300
b00 !
#459600
b01 !
#459700
b00 !
#460000
b01 !
#460100
b00 !
#460400
b01 !
#460500
b00 !
#460800
b01 !
#460900
b00 !
#461200
b01 !
#461300
b00 !
#461600
b01 !
#461700
b00 !
#462000
b01 !
#462100
b00 !
#462400
b01 !
#462500
b00 !
#462800
b01 !
#462900
b00 !
#463200
b01 !
#463300
b00 !
#463600
b01 !
#463700
b00 !
#464000
b01 !
#464100
b00 !
#464400
b01 !
#464500
b00 !
#464800
b01 !
#464900
b00 !
#465200
b01 !
#465300
b00 !
#465600
b01 !
#465700
b00 !
#466000
b01 !
#466100
b00 !
#466400
b01 !
#466500
b00 !
#466800
b01 !
#466900
b00 !
#467200
b01 !
#467300
b00 !
#467600
b01 !
#467700
b00 !
#468000
b01 !
#468100
b00 !
#468400
b01 !
#468500
b00 !
#468800
b01 !
#468900
b00 !
#469200
b01 !
#469300
b00 !
#469600
b01 !
#469700
b00 !
#470000
b01 !
#470100
b00 !
#470400
b01 !
#470500
b00 !
#470800
b01 !
#470900
b00 !
#471200
b01 !
#471300
b00 !
#471600
b01 !
#471700
b00 !
#472000
b01 !
#472100
b00 !
#472400
b01 !
#472500
b00 !
#472800
b01 !
#472900
b00 !
#473200
b01 !
#473300
b00 !
#473600
b01 !
#473700
b00 !
#474000
b01 !
#474100
b00 !
#474400
b01 !
#474500
b00 !
#474800
b01 !
#474900
b00 !
#475200
b01 !
#475300
b00 !
#475600
b01 !
#475700
b00 !
#476000
b01 !
#476100
b00 !
#476400
b01 !
#476500
b00 !
#476800
b01 !
#476900
b00 !
#477200
b01 !
#477300
b00 !
#477600
b01 !
#477700
b00 !
#478000
b01 !
#478100
b00 !
#478400
b01 !
#478500
b00 !
#478800
b01 !
#478900
b00 !
#479200
b01 !
#479300
b00 !
#479600
b01 !
#479700
b00 !
#480000
b01 !
#480100
b00 !
#480400
b01 !
#480500
b00 !
#480800
b01 !
#480900
b00 !
#481200
b01 !
#481300
b00 !
#481600
b01 !
#481700
b00 !
#482000
b01 !
#482100
b00 !
#482400
b01 !
#482500
b00 !
#482800
b01 !
#482900
b00 !
#483200
b01 !
#483300
b00 !
#483600
b01 !
#483700
b00 !
#484000
b01 !
#484100
b00 !
#484400
b01 !
#484500
b00 !
#484800
b01 !
#484900
b00 !
#485200
b01 !
#485300
b00 !
#485600
b01 !
#485700
b00 !
#486000
b01 !
#486100
b00 !
#486400
b01 !
#486500
b00 !
#486800
b01 !
#486900
b00 !
#487200
b01 !
#487300
b00 !
#487600
b01 !
#487700
b00 !
#488000
b01 !
#488100
b00 !
#488400
b01 !
#488500
b00 !
#488800
b01 !
#488900
b00 !
#489200
b01 !
#489300
b00 !
#489600
b01 !
#489700
b00 !
#490000
b01 !
#490100
b00 !
#490400
b01 !
#490500
b00 !
#490800
b01 !
#490900
b00 !
#491200
b01 !
#491300
b00 !
#491600
b01 !
#491700
b00 !
#492000
b01 !
#492100
b00 !
#492400
b01 !
#492500
b00 !
#492800
b01 !
#492900
b00 !
#493200
b01 !
#493300
b00 !
#493600
b01 !
#493700
b00 !
#494000
b01 !
#494100
b00 !
#494400
b01 !
#494500
b00 !
#494800
b01 !
#494900
b00 !
#495200
b01 !
#495300
b00 !
#495600
b01 !
#495700
b00 !
#496000
b01 !
#496100
b00 !
#496400
b01 !
#496500
b00 !
#496800
b01 !
#496900
b00 !
#497200
b01 !
#497300
b00 !
#497600
b01 !
#497700
b00 !
#498000
b01 !
#498100
b00 !
#498400
b01 !
#498500
b00 !
#498800
b01 !
#498900
b00 !
#499200
b01 !
#499300
b00 !
#499600
b01 !
#499700
b00 !
#500000
b01 !
#500100
b00 !
#500400
b01 !
#500500
b00 !
#500800
b01 !
#500900
b00 !
#501200
b01 !
#501300
b00 !
#501600
b01 !
#501700
b00 !
#502000
b01 !
#502100
b00 !
#502400
b01 !
#502500
b00 !
#502800
b01 !
#502900
b00 !
#503200
b01 !
#503300
b00 !
#503600
b01 !
#503700
b00 !
#504000
b01 !
#504100
b00 !
#504400
b01 !
#504500
b00 !
#504800
b01 !
#504900
b00 !
#505200
b01 !
#505300
b00 !
#505600
b01 !
#505700
b00 !
#506000
b01 !
#506100
b00 !
#506400
b01 !
#506500
b00 !
#506800
b01 !
#506900
b00 !
#507200
b01 !
#507300
b00 !
#507600
b01 !
#507700
b00 !
#508000
b01 !
#508100
b00 !
#508400
b01 !
#508500
b00 !
#508800
b01 !
#508900
b00 !
#509200
b01 !
#509300
b00 !
#509600
b01 !
#509700
b00 !
#510000
b01 !
#510100
b00 !
#510400
b01 !
#510500
b00 !
#510800
b01 !
#510900
b00 !
#511200
b01 !
#511300
b00 !
#511600
b01 !
#511700
b00 !
#512000
b01 !
#512100
b00 !
#512400
b01 !
#512500
b00 !
#512800
b01 !
#512900
b00 !
#513200
b01 !
#513300
b00 !
#513600
b01 !
#513700
b00 !
#514000
b01 !
#514100
b00 !
#514400
b01 !
#514500
b00 !
#514800
b01 !
#514900
b00 !
#515200
b01 !
#515300
b00 !
#515600
b01 !
#515700
b00 !
#516000
b01 !
#516100
b00 !
#516400
b01 !
#516500
b00 !
#516800
b01 !
#516900
b00 !
#517200
b01 !
#517300
b00 !
#517600
b01 !
#517700
b00 !
#518000
b01 !
#518100
b00 !
#518400
b01 !
#518500
b00 !
#518800
b01 !
#518900
b00 !
#519200
b01 !
#519300
b00 !
#519600
b01 !
#519700
b00 !
#520000
b01 !
#520100
b00 !
#520400
b01 !
#520500
b00 !
#520800
b01 !
#520900
b00 !
#521200
b01 !
#521300
b00 !
#521600
b01 !
#521700
b00 !
#522000
b01 !
#522100
b00 !
#522400
b01 !
#522500
b00 !
#522800
b01 !
#522900
b00 !
#523200
b01 !
#523300
b00 !
#523600
b01 !
#523700
b00 !
#524000
b01 !
1%
1&
#524100
b00 !
0%
0&
#524400
b01 !
1%
1&
#524500
b00 !
0%
0&
#524800
b01 !
1%
1&
#524900
b00 !
0%
0&
#525200
b01 !
1%
1&
#525300
b00 !
0%
0&
#525600
b01 !
1%
1&
#525700
b00 !
0%
0&
#526000
b01 !
1%
1&
#526100
b00 !
0%
0&
#526400
b01 !
1%
1&
#526500
b00 !
0%
0&
#526800
b01 !
1%
1&
#526900
b00 !
0%
0&
#527200
b01 !
1%
1&
